<svg width="55" height="54" viewBox="0 0 55 54" fill="#FF7323" xmlns="http://www.w3.org/2000/svg">
    <path d="M19.9731 13.1523C16.0791 13.1523 12.9118 16.2621 12.9118 20.0853V34.8475C12.9118 38.6706 16.0791 41.7804 19.9731 41.7804H35.0086C38.9026 41.7804 42.07 38.6706 42.07 34.8475V20.0853C42.07 16.2621 38.9026 13.1523 35.0086 13.1523H19.9731ZM35.1763 18.4206C36.0147 18.4206 36.7041 19.0975 36.7041 19.9206C36.7041 20.7438 36.0147 21.4206 35.1763 21.4206C34.3379 21.4206 33.6486 20.7438 33.6486 19.9206C33.6299 19.0975 34.3193 18.4206 35.1763 18.4206ZM27.5002 19.9206C31.7295 19.9206 35.1763 23.2865 35.1763 27.4572C35.1763 31.628 31.7481 34.9938 27.5002 34.9938C23.2522 34.9938 19.824 31.628 19.824 27.4572C19.824 23.3048 23.2708 19.9206 27.5002 19.9206ZM27.5002 22.1889C24.5378 22.1889 22.1343 24.5487 22.1343 27.4572C22.1343 30.3658 24.5378 32.7255 27.5002 32.7255C30.4626 32.7255 32.866 30.3658 32.866 27.4572C32.866 24.5487 30.4626 22.1889 27.5002 22.1889Z" fill="#FF7323"/>
    <path d="M27.5 54C12.334 54 0 41.8902 0 27C0 12.1098 12.334 0 27.5 0C42.666 0 55 12.1098 55 27C55 41.8902 42.666 54 27.5 54ZM27.5 2.19512C13.5637 2.19512 2.23577 13.3171 2.23577 27C2.23577 40.6829 13.5637 51.8049 27.5 51.8049C41.4363 51.8049 52.7642 40.6829 52.7642 27C52.7642 13.3171 41.4177 2.19512 27.5 2.19512Z" fill="#FF7323"/>
</svg>
